module gitlab.com/wangzhuan/github.com.globalsign.mgo

go 1.12

require (
	golang.org/x/net v0.14.0 // indirect
	gopkg.in/check.v1 v1.0.0-20201130134442-10cb98267c6c
	gopkg.in/tomb.v2 v2.0.0-20161208151619-d5d1b5820637
)
